[
    {
        "date": "2019-05-30T16:33:13.527Z",
        "type": "GET",
        "url": "/address/check?X-Requested-With=XMLHttpRequest",
        "params": {},
        "body": {},
        "headers": {
            "x-requested-with": "XMLHttpRequest",
            "user-agent": "PostmanRuntime/7.13.0",
            "accept": "*/*",
            "cache-control": "no-cache",
            "postman-token": "ff3f8ea4-7ad5-4e23-93cf-5b4f3e194e70",
            "host": "localhost:4000",
            "cookie": "connect.sid=s%3A8ufp9DdaaZYx4ODRxnd8sYZ0-H6Vh9GX.JVJ0nxXkxTFHRjti9QnLOT2HNupPN4tHiP3%2FmRevJSs",
            "accept-encoding": "gzip, deflate",
            "connection": "keep-alive"
        },
        "message": {}
    }
]
